{
  "page": 1,
  "per_page": 3,
  "total": 12,
  "total_pages": 4,
  "author":{
    "name": "CodeTao"
  },
  "data": [
    {
      "id": 1,
      "name": "Harry",
      "avatar": "https://upload-images.jianshu.io/upload_images/126164-be76091e050f0605.png",
      "images": [
        {
          "id" : 22,
          "imageName": "aaa.jpeg"
        },
        {
          "id" : 23,
          "imageName": "bbb.jpeg"
        }
      ]

    },
    {
      "id": 2,
      "name": "Jame",
      "avatar": "https://upload-images.jianshu.io/upload_images/126164-be76091e050f0605.png",
      "images": [
        {
          "id" : 33,
          "imageName": "ccc.jpeg"
        },
        {
          "id" : 34,
          "imageName": "ddd.jpeg"
        }
      ]
    },
    {
      "id": 3,
      "name": "Henry",
      "avatar": "https://upload-images.jianshu.io/upload_images/126164-be76091e050f0605.png",
      "images": [
        {
          "id" : 44,
          "imageName": "eee.jpeg"
        },
        {
          "id" : 45,
          "imageName": "fff.jpeg"
        }
      ]
    }
  ]
}